{
    "KPlugin": {
        "Description": "Configure Security",
        "Description[ar]": "اضبط الأمن",
        "Description[az]": "Təhlükəsizlik ayarları",
        "Description[bg]": "Настройване на сигурността",
        "Description[ca@valencia]": "Configura la seguretat",
        "Description[ca]": "Configura la seguretat",
        "Description[cs]": "Nastavit zabezpečení",
        "Description[de]": "Sicherheit einrichten",
        "Description[el]": "Διαμόρφωση ασφάλειας",
        "Description[en_GB]": "Configure Security",
        "Description[eo]": "Agordi Sekurecon",
        "Description[es]": "Configurar la seguridad",
        "Description[eu]": "Konfiguratu segurtasuna",
        "Description[fi]": "Tietoturva-asetukset",
        "Description[fr]": "Configuration de la sécurité",
        "Description[gl]": "Configurar a seguridade.",
        "Description[hu]": "Biztonsági beállítások",
        "Description[ia]": "Configura securitate",
        "Description[id]": "Atur Keamanan",
        "Description[is]": "Grunnstilla öryggi",
        "Description[it]": "Configura la sicurezza",
        "Description[ka]": "უსაფრთხოების მორგება",
        "Description[ko]": "보안 설정",
        "Description[nl]": "Beveiliging configureren",
        "Description[nn]": "Set opp tryggleik",
        "Description[pl]": "Ustawienia zabezpieczeń",
        "Description[pt]": "Configurar a Segurança",
        "Description[pt_BR]": "Configurar segurança",
        "Description[ru]": "Настройка безопасности",
        "Description[sk]": "Nastaviť zabezpečenie",
        "Description[sl]": "Nastavi varnost",
        "Description[sv]": "Anpassa säkerhet",
        "Description[tr]": "Güvenliği Yapılandır",
        "Description[uk]": "Налаштовування захисту",
        "Description[x-test]": "xxConfigure Securityxx",
        "Description[zh_CN]": "安全性设置",
        "Description[zh_TW]": "設定安全性",
        "Icon": "security-high",
        "Name": "Security",
        "Name[af]": "Sekuriteit",
        "Name[ar]": "الأمن",
        "Name[az]": "Təhlükəsizlik",
        "Name[be]": "Бяспека",
        "Name[bg]": "Сигурност",
        "Name[br]": "Surentez",
        "Name[bs]": "Sigurnost",
        "Name[ca@valencia]": "Seguretat",
        "Name[ca]": "Seguretat",
        "Name[cs]": "Bezpečnost",
        "Name[cy]": "Diogelwch",
        "Name[da]": "Sikkerhed",
        "Name[de]": "Sicherheit",
        "Name[el]": "Ασφάλεια",
        "Name[en_GB]": "Security",
        "Name[eo]": "Sekureco",
        "Name[es]": "Seguridad",
        "Name[et]": "Turvalisus",
        "Name[eu]": "Sekuritatea",
        "Name[fa]": "امنیت",
        "Name[fi]": "Turvallisuus",
        "Name[fr]": "Sécurité",
        "Name[fy]": "Feiligens",
        "Name[ga]": "Slándáil",
        "Name[gl]": "Seguridade",
        "Name[hu]": "Biztonság",
        "Name[ia]": "Securitate",
        "Name[id]": "Keamanan",
        "Name[is]": "Öryggi",
        "Name[it]": "Sicurezza",
        "Name[ja]": "セキュリティ",
        "Name[ka]": "უსაფრთხოება",
        "Name[kk]": "Қауіпсіздік",
        "Name[km]": "សុវត្ថិភាព",
        "Name[ko]": "보안",
        "Name[lt]": "Saugumas",
        "Name[lv]": "Drošība",
        "Name[mai]": "सुरक्षा",
        "Name[mk]": "Безбедност",
        "Name[mr]": "सुरक्षा",
        "Name[ms]": "Keselamatan",
        "Name[nds]": "Sekerheit",
        "Name[ne]": "सुरक्षा",
        "Name[nl]": "Beveiliging",
        "Name[nn]": "Tryggleik",
        "Name[pa]": "ਸੁਰੱਖਿਆ",
        "Name[pl]": "Bezpieczeństwo",
        "Name[pt]": "Segurança",
        "Name[pt_BR]": "Segurança",
        "Name[ru]": "Безопасность",
        "Name[sk]": "Zabezpečenie",
        "Name[sl]": "Varnost",
        "Name[sv]": "Säkerhet",
        "Name[ta]": "பாதுகாப்பு",
        "Name[tg]": "Амният",
        "Name[th]": "ความปลอดภัย",
        "Name[tr]": "Güvenlik",
        "Name[ug]": "بىخەتەرلىك",
        "Name[uk]": "Захист",
        "Name[uz@cyrillic]": "Хавфсизлик",
        "Name[uz]": "Xavfsizlik",
        "Name[wa]": "Såvrité",
        "Name[x-test]": "xxSecurityxx",
        "Name[zh_CN]": "安全",
        "Name[zh_TW]": "安全性",
        "ServiceTypes": [
            "KCModule"
        ]
    },
    "X-KDE-Weight": 260
}
